Basic Simulations • ffsimulator
…
The summary_season table is a season-level summary of all weeks within those seasons - any one of these seasons “could” theoretically be the outcome of the upcoming season!

foureight_sim$summary_season
#> # A tibble: 300 × 12
#>    season league_id franchise_id franchise_name h2h_wins h2h_winpct allplay_wins
#>     <dbl> <chr>     <chr>        <chr>             <int>      <dbl>        <dbl>
#>  1      1 22627     0001         Mexico City S…       10      0.714           98
#>  2      1 22627     0002         Dirty Dgens           4      0.286           48
#>  3      1 22627     0003         Alberta Armad…        8      0.571           87
#>  4      1 22627     0004         Electric Wood…        6      0.429           70
#>  5      1 22627     0005         Motor City Mu…        7      0.5             85
#>  6      1 22627     0006         Hoth City Tau…        2      0.143           49
#>  7      1 22627     0007         Paw Patrol            7      0.5             76
#>  8      1 22627     0008         Domination St…        5      0.357           63
#>  9      1 22627     0009         Kill Devil Hi…        7      0.5             68
#> 10      1 22627     0010         [Redacted]            6      0.429           49
#> # … with 290 more rows, and 5 more variables: allplay_games <dbl>,
#> #   allplay_winpct <dbl>, points_for <dbl>, points_against <dbl>,
#> #   potential_points <dbl>

The summary_week table is a week-level summary of each team’s performance, including the optimal lineup that could have been played by the team and the randomly-generated lineup efficiency factor:

foureight_sim$summary_week
#> # A tibble: 4,200 × 16
#>    season season_week franchise_name   optimal_score lineup_efficien… team_score
#>     <dbl>       <dbl> <chr>                    <dbl>            <dbl>      <dbl>
#>  1      1           1 Mexico City Spa…         223.             0.748      166. 
#>  2      1           1 Dirty Dgens               88.4            0.791       70.0
#>  3      1           1 Alberta Armadil…         187.             0.776      145. 
#>  4      1           1 Electric Woodies         117.             0.739       86.7
#>  5      1           1 Motor City Mutts         219.             0.696      153. 
#>  6      1           1 Hoth City Taunt…          99.3            0.713       70.9
#>  7      1           1 Paw Patrol               163.             0.713      116. 
#>  8      1           1 Domination Stat…         152.             0.761      115. 
#>  9      1           1 Kill Devil Hill…         139.             0.79       110. 
#> 10      1           1 [Redacted]               162.             0.788      127. 
#> # … with 4,190 more rows, and 10 more variables: opponent_score <dbl>,
#> #   result <chr>, opponent_name <chr>, allplay_wins <dbl>, allplay_games <dbl>,
#> #   allplay_pct <dbl>, league_id <chr>, franchise_id <chr>,
#> #   optimal_player_id <list>, optimal_player_score <list>
…
