Optimise Lineups — ffs_optimise_lineups • ffsimulator
…
    See also

    vignette("Custom Simulations") for example usage

    Examples

# \donttest{
# cached examples
roster_scores <- .ffs_cache("roster_scores.rds")
lineup_constraints <- .ffs_cache("mfl_lineup_constraints.rds")

ffs_optimise_lineups(roster_scores, lineup_constraints)

#> # A tibble: 240 × 9
#>    franchise_id franchise_name                 league_id season  week optimal_score
#>    <chr>        <chr>                          <chr>      <int> <int>         <dbl>
#>  1 0003         Alberta Armadillos             22627          1     9          197.
#>  2 0010         [Redacted]                     22627          2     8          182.
#>  3 0012         Indigo Plateau Elite           22627          1    10          201.
#>  4 0009         Kill Devil Hills Carpetbaggers 22627          2     2          155.
#>  5 0004         Electric Woodies               22627          1     5          223.
#>  6 0008         Domination Station             22627          1     8          219.
#>  7 0008         Domination Station             22627          1     2          194.
#>  8 0001         Mexico City Space Force        22627          2     3          181.
#>  9 0009         Kill Devil Hills Carpetbaggers 22627          2     8          160.
#> 10 0009         Kill Devil Hills Carpetbaggers 22627          2     9          185.
#> # … with 230 more rows, and 3 more variables: optimal_lineup <list>,
#> #   lineup_efficiency <dbl>, actual_score <dbl>
…
