Join Rosters to Projected Scores — ffs_score_rosters • ffsimulator
…
    See also

    vignette("Custom Simulations") for example usage

    Examples

# \donttest{
# cached examples
projected_scores <- .ffs_cache("projected_scores.rds")
rosters <- .ffs_cache("mfl_rosters.rds")

ffs_score_rosters(projected_scores, rosters)

#> # A tibble: 7,120 × 18
#>    franchise_id franchise_name         player_id player_name   pos   team    age
#>    <chr>        <chr>                  <chr>     <chr>         <chr> <chr> <dbl>
#>  1 0003         Alberta Armadillos     14802     Taylor, Jona… RB    IND    22.5
#>  2 0010         [Redacted]             15254     Harris, Najee RB    PIT    23.4
#>  3 0012         Indigo Plateau Elite   13671     Andrews, Mark TE    BAL    24.9
#>  4 0009         Kill Devil Hills Carp… 11222     Allen, Keenan WR    LAC    29.2
#>  5 0004         Electric Woodies       13319     Jones, Aaron  RB    GBP    26.6
#>  6 0008         Domination Station     11675     Adams, Davan… WR    GBP    28.6
#>  7 0008         Domination Station     13604     Barkley, Saq… RB    NYG    24.4
#>  8 0008         Domination Station     14798     Moss, Zack    RB    BUF    23.6
#>  9 0001         Mexico City Space For… 14104     Brown, A.J.   WR    TEN    24  
#> 10 0009         Kill Devil Hills Carp… 13132     Kamara, Alvin RB    NOS    26  
#> # … with 7,110 more rows, and 11 more variables: fantasypros_id <chr>,
#> #   league_id <chr>, ecr <dbl>, rank <dbl>, projection <dbl>,
#> #   injury_model <int>, season <int>, week <int>, projected_score <dbl>,
#> #   scrape_date <date>, pos_rank <int>
…
