Get Rosters — ffs_rosters • ffsimulator
…
    a dataframe of rosters that includes a fantasypros_id column

    See also

    vignette("Custom Simulations") for more detailed example usage

    Examples

# \donttest{
# cached examples
conn <- .ffs_cache("mfl_conn.rds")

ffs_rosters(conn)

#> # A tibble: 721 × 14
#>    franchise_id franchise_name    player_id player_name pos   team    age salary
#>    <chr>        <chr>             <chr>     <chr>       <chr> <chr> <dbl>  <dbl>
#>  1 0001         Mexico City Spac… 13592     Darnold, S… QB    CAR    24.2  16.3 
#>  2 0001         Mexico City Spac… 11317     Poyer, Jor… S     BUF    30.3   3.91
#>  3 0001         Mexico City Spac… 13633     Kirk, Chri… WR    ARI    24.8   4.96
#>  4 0001         Mexico City Spac… 13717     Reid, Just… S     HOU    24.5   1.81
#>  5 0001         Mexico City Spac… 13672     Gesicki, M… TE    MIA    25.9   0.97
#>  6 0001         Mexico City Spac… 13700     Landry, Ha… LB    TEN    25.2   0.61
#>  7 0001         Mexico City Spac… 14168     White, Dev… LB    TBB    23.5   6.29
#>  8 0001         Mexico City Spac… 14210     Pratt, Ger… LB    CIN    24.3   0.85
#>  9 0001         Mexico City Spac… 14073     Jacobs, Jo… RB    LVR    23.5  11.5 
#> 10 0001         Mexico City Spac… 14079     Sanders, M… RB    PHI    24.3   7.14
#> # … with 711 more rows, and 6 more variables: contract_years <dbl>,
#> #   roster_status <chr>, draft_year <chr>, draft_round <chr>,
#> #   fantasypros_id <chr>, league_id <chr>
…
